…
hmda_s <- read_rds("hmda_2014-17_sample_80k.rds") |>
  select(-agency_code)
unique_vals <- hmda_s |>
  summarize(a = across(where(is_character), \(f) list(unique(f)))) |>
  unnest(a) |>
  pivot_longer(everything()) |>
  filter(!(name %in% c("state", "county", "state_abbr", "msamd"))) |>
  unnest(value) |>
  group_by(value) |>
  slice_head(n = 1) |>
  arrange(name)
unique_vals
```

    # A tibble: 4,419 × 2
    # Groups:   value [4,419]
       name         value                                              
       <chr>        <chr>                                              
     1 action_taken Application approved but not accepted              
     2 action_taken Application denied by financial institution        
     3 action_taken Application withdrawn by applicant                 
     4 action_taken File closed for incompleteness                     
     5 action_taken Loan originated                                    
     6 action_taken Loan purchased by the institution                  
     7 action_taken Preapproval request approved but not accepted      
     8 action_taken Preapproval request denied by financial institution
     9 agency       Consumer Financial Protection Bureau               
    10 agency       Department of Housing and Urban Development        
    # ℹ 4,409 more rows
…
